[gd_scene load_steps=5 format=2]

[ext_resource path="res://scenes/projectiles/LaserProjectile.gd" type="Script" id=1]

[sub_resource type="SpatialMaterial" id=1]
albedo_color = Color( 1, 0, 0, 1 )
emission_enabled = true
emission = Color( 1, 0, 0, 1 )
emission_energy = 1.0
emission_operator = 0
emission_on_uv2 = false

[sub_resource type="CubeMesh" id=2]
material = SubResource( 1 )
flip_faces = true
size = Vector3( 0.2, 0.2, 2 )

[sub_resource type="BoxShape" id=3]
extents = Vector3( 0.1, 0.1, 1 )

[node name="Area" type="Area"]
script = ExtResource( 1 )

[node name="MeshInstance" type="MeshInstance" parent="."]
mesh = SubResource( 2 )
material/0 = null

[node name="CollisionShape" type="CollisionShape" parent="."]
shape = SubResource( 3 )
[connection signal="body_entered" from="." to="." method="_on_Area_body_entered"]
